1	7.348	42.400	0.407
2	6.544	33.600	0.513
3	5.827	26.700	0.647
4	5.189	21.200	0.815
5	4.621	16.800	1.028
6	4.115	13.300	1.296
7	3.665	10.500	1.634
8	3.264	8.370	2.061
9	2.906	6.630	2.599
10	2.588	5.260	3.277
11	2.305	4.170	4.132
12	2.503	3.310	5.211
13	1.828	2.620	6.571
14	1.628	2.080	8.286
15	1.450	1.650	10.450
16	1.291	1.310	13.170
17	1.150	1.040	16.610
18	1.024	0.823	20.950
19	0.912	0.653	26.420
20	0.812	0.518	33.310
21	0.723	0.41	42.000
22	0.644	0.326	52.960
23	0.573	0.258	66.790
24	0.511	0.205	84.220
25	0.455	0.162	106.200
26	0.405	0.129	133.900
27	0.361	0.102	168.900
28	0.321	0.081	212.900
29	0.286	0.064	268.500
30	0.255	0.051	338.600
