0.000000	0.000000
0.004729	1.555644
0.009457	3.090335
0.014186	4.601327
0.018915	6.085873
0.023644	7.541226
0.028372	8.964641
0.033101	10.353371
0.037830	11.704670
0.042558	13.015792
0.047287	14.283990
0.052016	15.506517
0.056745	16.680628
0.061473	17.803576
0.066202	18.872615
0.070931	19.884999
0.075659	20.837981
0.080388	21.728815
0.085117	22.554754
0.089846	23.313052
0.094574	24.000964
0.099303	24.615742
0.104032	25.171890
0.108761	25.698890
0.113489	26.198925
0.118218	26.673682
0.122947	27.124845
0.127675	27.554100
0.132404	27.963132
0.137133	28.353625
0.141862	28.727266
0.146590	29.085739
0.151319	29.430729
0.156048	29.763923
0.160776	30.087004
0.165505	30.401658
0.170234	30.709571
0.174963	31.012427
0.179691	31.311911
0.184420	31.609710
0.189149	31.907507
0.193877	32.206989
0.198606	32.509841
0.203335	32.814397
0.208064	33.112216
0.212792	33.403187
0.217521	33.687768
0.222250	33.966414
0.226978	34.239583
0.231707	34.507733
0.236436	34.771320
0.241165	35.030802
0.245893	35.286635
0.250622	35.539277
0.255351	35.789185
0.260079	36.036815
0.264808	36.282625
0.269537	36.527073
0.274266	36.770614
0.278994	37.013707
0.283723	37.256808
0.288452	37.500374
0.293180	37.744863
0.297909	37.990731
0.302638	38.237740
0.307367	38.482901
0.312095	38.725970
0.316824	38.967132
0.321553	39.206572
0.326282	39.444476
0.331010	39.681029
0.335739	39.916416
0.340468	40.150821
0.345196	40.384431
0.349925	40.617429
0.354654	40.850002
0.359383	41.082334
0.364111	41.314610
0.368840	41.547016
0.373569	41.779737
0.378297	42.012957
0.383026	42.246862
0.387755	42.481637
0.392484	42.717467
0.397212	42.954537
0.401941	43.192855
0.406670	43.430871
0.411398	43.668296
0.416127	43.905279
0.420856	44.141963
0.425585	44.378496
0.430313	44.615024
0.435042	44.851693
0.439771	45.088648
0.444499	45.326037
0.449228	45.564005
0.453957	45.802697
0.458686	46.042261
0.463414	46.282843
0.468143	46.524588
0.472872	46.767643
0.477600	47.012153
0.482329	47.258266
0.487058	47.506126
0.491787	47.755880
0.496515	48.007675
0.501244	48.261605
0.505973	48.516642
0.510701	48.772414
0.515430	49.029038
0.520159	49.286631
0.524888	49.545312
0.529616	49.805196
0.534345	50.066402
0.539074	50.329047
0.543803	50.593247
0.548531	50.859122
0.553260	51.126787
0.557989	51.396360
0.562717	51.667958
0.567446	51.941700
0.572175	52.217701
0.576904	52.496080
0.581632	52.776954
0.586361	53.060439
0.591090	53.346654
0.595818	53.635716
0.600547	53.927740
0.605276	54.222600
0.610005	54.520156
0.614733	54.820404
0.619462	55.123341
0.624191	55.428963
0.628919	55.737268
0.633648	56.048252
0.638377	56.361912
0.643106	56.678245
0.647834	56.997248
0.652563	57.318916
0.657292	57.643248
0.662020	57.970239
0.666749	58.299887
0.671478	58.632189
0.676207	58.967140
0.680935	59.304738
0.685664	59.644980
0.690393	59.987862
0.695121	60.333381
0.699850	60.681534
0.704579	61.031907
0.709308	61.384132
0.714036	61.738422
0.718765	62.094991
0.723494	62.454056
0.728222	62.815829
0.732951	63.180526
0.737680	63.548362
0.742409	63.919551
0.747137	64.294308
0.751866	64.672849
0.756595	65.055386
0.761324	65.442136
0.766052	65.833313
0.770781	66.229131
0.775510	66.629806
0.780238	67.035552
0.784967	67.446584
0.789696	67.863116
0.794425	68.285364
0.799153	68.713542
0.803882	69.147406
0.808611	69.586209
0.813339	70.030106
0.818068	70.479281
0.822797	70.933918
0.827526	71.394200
0.832254	71.860312
0.836983	72.332437
0.841712	72.810759
0.846440	73.295462
0.851169	73.786730
0.855898	74.284746
0.860627	74.789694
0.865355	75.301759
0.870084	75.821123
0.874813	76.347971
0.879541	76.882487
0.884270	77.424854
0.888999	77.975257
0.893728	78.533878
0.898456	79.100902
0.903185	79.676324
0.907914	80.259747
0.912642	80.851449
0.917371	81.451766
0.922100	82.061032
0.926829	82.679582
0.931557	83.307752
0.936286	83.945875
0.941015	84.594286
0.945743	85.253321
0.950472	85.923314
0.955201	86.604601
0.959930	87.297515
0.964658	88.002392
0.969387	88.719566
0.974116	89.449373
0.978845	90.192148
0.983573	90.948224
0.988302	91.717937
0.993031	92.501622
0.997759	93.299614
1.002488	94.111247
1.007217	94.931480
1.011946	95.760953
1.016674	96.601320
1.021403	97.454235
1.026132	98.321352
1.030860	99.204326
1.035589	100.104811
1.040318	101.024461
1.045047	101.964930
1.049775	102.927874
1.054504	103.914944
1.059233	104.927797
1.063961	105.968087
1.068690	107.037467
1.073419	108.137591
1.078148	109.270115
1.082876	110.436692
1.087605	111.638976
1.092334	112.878623
1.097062	114.157285
1.101791	115.476266
1.106520	116.833649
1.111249	118.231281
1.115977	119.672240
1.120706	121.159604
1.125435	122.696450
1.130163	124.285857
1.134892	125.930902
1.139621	127.634664
1.144350	129.400220
1.149078	131.230649
1.153807	133.129028
1.158536	135.098434
1.163264	137.141947
1.167993	139.262644
1.172722	141.463602
1.177451	143.747901
1.182179	146.118617
1.186908	148.578829
1.191637	151.131614
1.196366	153.780051
1.201094	156.527582
1.205823	159.392569
1.210552	162.392220
1.215280	165.537958
1.220009	168.841204
1.224738	172.313380
1.229467	175.965907
1.234195	179.810206
1.238924	183.857700
1.243653	188.119810
1.248381	192.607957
1.253110	197.333564
1.257839	202.308051
1.262568	207.542841
1.267296	213.049354
1.272025	218.839013
1.276754	224.923239
1.281482	231.313454
1.286211	238.021080
1.290940	245.057537
1.295669	252.434247
1.300397	260.162851
1.305126	268.781721
1.309855	278.758016
1.314583	290.058792
1.319312	302.651103
1.324041	316.502004
1.328770	331.578551
1.333498	347.847798
1.338227	365.276801
1.342956	383.832615
1.347684	403.482295
1.352413	424.192897
1.357142	445.931474
1.361871	468.665083
1.366599	492.360778
1.371328	516.985616
1.376057	542.506649
1.380785	568.890935
1.385514	596.105528
1.390243	624.117483
1.394972	652.893855
1.399700	682.401699
1.404429	713.412488
1.409158	747.834429
1.413887	785.630211
1.418615	826.668517
1.423344	870.818029
1.428073	917.947430
1.432801	967.925402
1.437530	1020.620626
1.442259	1075.901787
1.446988	1133.637565
1.451716	1193.696644
1.456445	1255.947705
1.461174	1320.259432
1.465902	1386.500506
1.470631	1454.539610
1.475360	1524.245425
1.480089	1595.486636
1.484817	1668.131923
1.489546	1742.049970
1.494275	1817.109458
1.499003	1893.179070
1.503732	1970.278509
1.508461	2051.321358
1.513190	2137.267006
1.517918	2227.846080
1.522647	2322.789205
1.527376	2421.827009
1.532104	2524.690117
1.536833	2631.109157
1.541562	2740.814755
1.546291	2853.537538
1.551019	2969.008132
1.555748	3086.957163
1.560477	3207.115259
1.565205	3329.213046
1.569934	3452.981150
1.574663	3578.150197
1.579392	3704.450816
1.584120	3831.613631
1.588849	3959.369270
1.593578	4087.448359
1.598306	4215.581524
1.603035	4343.499393
1.607764	4471.181694
1.612493	4600.096860
1.617221	4730.555329
1.621950	4862.585771
1.626679	4996.216856
1.631408	5131.477253
1.636136	5268.395630
1.640865	5407.000659
1.645594	5547.321007
1.650322	5689.385345
1.655051	5833.222341
1.659780	5978.860666
1.664509	6126.328988
1.669237	6275.655977
1.673966	6426.870303
1.678695	6580.000634
1.683423	6735.075641
1.688152	6892.123992
1.692881	7051.174357
1.697610	7212.255405
1.702338	7375.395806
1.707067	7540.624230
1.711796	7708.046954
1.716524	7878.206408
1.721253	8051.167257
1.725982	8226.887502
1.730711	8405.325143
1.735439	8586.438181
1.740168	8770.184616
1.744897	8956.522449
1.749625	9145.409681
1.754354	9336.804312
1.759083	9530.664343
1.763812	9726.947774
1.768540	9925.612606
1.773269	10126.616840
1.777998	10329.918476
1.782726	10535.475515
1.787455	10743.245957
1.792184	10953.187803
1.796913	11165.259054
1.801641	11379.417711
1.806370	11595.621773
1.811099	11813.829242
1.815827	12033.998118
1.820556	12256.086402
1.825285	12480.052094
1.830014	12705.853195
1.834742	12933.447706
1.839471	13162.793627
1.844200	13393.848958
1.848929	13626.571701
1.853657	13860.919857
1.858386	14096.851424
1.863115	14334.324405
1.867843	14573.296800
1.872572	14813.726610
1.877301	15055.571834
1.882030	15298.790474
1.886758	15543.340531
1.891487	15789.180004
1.896216	16036.266895
1.900944	16284.559204
1.905673	16534.014932
1.910402	16784.592079
1.915131	17036.248646
1.919859	17288.942634
1.924588	17542.632043
1.929317	17797.274874
1.934045	18052.829127
1.938774	18309.252803
1.943503	18566.503903
1.948232	18824.540428
1.952960	19083.320377
1.957689	19342.801751
1.962418	19602.942552
1.967146	19863.700779
1.971875	20125.034434
1.976604	20386.901516
1.981333	20649.260027
1.986061	20912.067968
1.990790	21175.283338
1.995519	21438.864138
2.000247	21702.768369
2.004976	21966.954032
2.009705	22231.379127
2.014434	22496.001655
2.019162	22760.779617
2.023891	23025.671012
2.028620	23290.633842
2.033348	23555.626108
2.038077	23820.605809
2.042806	24085.530947
2.047535	24350.359522
2.052263	24615.049534
2.056992	24879.558985
2.061721	25143.845875
2.066450	25407.868204
2.071178	25671.583974
2.075907	25934.951184
2.080636	26197.927836
2.085364	26460.471929
2.090093	26722.541466
2.094822	26984.094445
2.099551	27245.088868
2.104279	27505.482736
2.109008	27765.234049
2.113737	28024.300807
2.118465	28282.641012
2.123194	28540.212663
2.127923	28796.973763
2.132652	29052.882310
2.137380	29307.896306
2.142109	29561.973751
2.146838	29815.072646
2.151566	30067.150992
2.156295	30318.166788
2.161024	30568.078037
2.165753	30816.842738
2.170481	31064.418892
2.175210	31310.764500
2.179939	31555.837562
2.184667	31799.596078
2.189396	32041.998050
2.194125	32283.001479
2.198854	32522.564363
2.203582	32760.644705
2.208311	32997.200505
2.213040	33232.189764
2.217768	33465.570481
2.222497	33697.300659
2.227226	33927.338296
2.231955	34155.641395
2.236683	34382.167955
2.241412	34606.875977
2.246141	34829.723462
2.250869	35050.668411
2.255598	35269.668823
2.260327	35486.682700
2.265056	35701.668043
2.269784	35914.582851
2.274513	36125.385125
2.279242	36334.032867
2.283971	36540.484076
2.288699	36744.696754
2.293428	36946.628900
2.298157	37146.238516
2.302885	37343.483603
2.307614	37538.322159
2.312343	37730.712188
2.317072	37920.611688
2.321800	38107.978660
2.326529	38292.771106
2.331258	38474.947026
2.335986	38654.464420
2.340715	38831.281289
2.345444	39005.355633
2.350173	39176.645454
2.354901	39345.108752
2.359630	39510.703527
