0	0
0.199707293	24.7
0.261640153	32.6
0.303880166	38.1
0.341563567	43.1
0.379232015	48.2
0.420345982	53.9
0.467948177	60.7
0.52249234	68.8
0.589573853	79.3
0.674814012	93.7
0.786905	115
0.960807168	156
1.23324457	260
1.570978124	690
1.720137828	1950
1.769094602	4410
1.788517615	7630
1.801681403	12000
1.90		20000
2.0		30000		
2.1		40000
2.2		60000